…
WA_blocks = load_state("WA", "data-raw/fcc.csv")
#> ℹ Extracting WA data.
WA_est = est_2020(WA_blocks)

print(WA_est)
#> # A tibble: 195,574 x 4
#>    state block           pop2010 pop2020
#>    <fct> <chr>             <dbl>   <dbl>
#>  1 WA    530019501001000       0       0
#>  2 WA    530019501001001       0       0
#>  3 WA    530019501001002       0       0
#>  4 WA    530019501001003       0       0
#>  5 WA    530019501001004       0       0
#>  6 WA    530019501001005       0       0
#>  7 WA    530019501001006       0       0
#>  8 WA    530019501001007       0       0
#>  9 WA    530019501001008       0       0
#> 10 WA    530019501001009       0       0
#> # … with 195,564 more rows
…
